This is BibTeX, Version 0.99d (TeX Live 2012)
Capacity: max_strings=35307, hash_size=35307, hash_prime=30011
The top-level auxiliary file: ccs14.aux
The style file: IEEEtran.bst
Reallocated singl_function (elt_size=4) to 100 items from 50.
Reallocated singl_function (elt_size=4) to 100 items from 50.
Reallocated singl_function (elt_size=4) to 100 items from 50.
Reallocated wiz_functions (elt_size=4) to 6000 items from 3000.
Reallocated singl_function (elt_size=4) to 100 items from 50.
Database file #1: ccs14.bib
You're missing a field name---line 479 of file ccs14.bib
 : 
 : %  author    = {Z. Cheng},
(Error may have been on previous line)
I'm skipping whatever remains of this entry
A bad cross reference---entry "DBLP:conf/mobihoc/NordstromABR09"
refers to entry "DBLP:conf/mobihoc/2009", which doesn't exist
A bad cross reference---entry "DBLP:conf/mobihoc/MengIQN12"
refers to entry "DBLP:conf/mobihoc/2012", which doesn't exist
A bad cross reference---entry "DBLP:conf/mobisys/MiluzzoVBC12"
refers to entry "DBLP:conf/mobisys/2012", which doesn't exist
A bad cross reference---entry "DBLP:conf/mobisys/QinBCN11"
refers to entry "DBLP:conf/mobisys/2011", which doesn't exist
A bad cross reference---entry "DBLP:conf/mobihoc/SinghNCT12"
refers to entry "DBLP:conf/mobihoc/2012", which doesn't exist
A bad cross reference---entry "DBLP:conf/ccs/EnckOM09"
refers to entry "DBLP:conf/ccs/2009", which doesn't exist
A bad cross reference---entry "DBLP:conf/ccs/BarreraKOS10"
refers to entry "DBLP:conf/ccs/2010", which doesn't exist
A bad cross reference---entry "DBLP:conf/ccs/ZhuangZT05"
refers to entry "DBLP:conf/ccs/2005", which doesn't exist
A bad cross reference---entry "DBLP:conf/ccs/BergerWY06"
refers to entry "DBLP:conf/ccs/2006usa", which doesn't exist
A bad cross reference---entry "DBLP:conf/sp/AsonovA04"
refers to entry "DBLP:conf/sp/2004", which doesn't exist
A bad cross reference---entry "DBLP:conf/ccs/MarquardtVCT11"
refers to entry "DBLP:conf/ccs/2011", which doesn't exist
A bad cross reference---entry "DBLP:conf/sensys/PengSZLT07"
refers to entry "DBLP:conf/sensys/2007", which doesn't exist
A bad cross reference---entry "DBLP:conf/sensys/QiuCMM11"
refers to entry "DBLP:conf/sensys/2011", which doesn't exist
A bad cross reference---entry "DBLP:conf/sensys/GirodLTE06a"
refers to entry "DBLP:conf/sensys/2006", which doesn't exist
A bad cross reference---entry "DBLP:conf/mobicom/YangSCVLCCGM11"
refers to entry "DBLP:conf/mobicom/2011", which doesn't exist
A bad cross reference---entry "DBLP:conf/mobisys/WangYLCGM13"
refers to entry "DBLP:conf/mobisys/2013", which doesn't exist
A bad cross reference---entry "DBLP:conf/mobisys/ZhangCCM12"
refers to entry "DBLP:conf/mobisys/2012", which doesn't exist
A bad cross reference---entry "DBLP:conf/mobisys/SurWZ14"
refers to entry "DBLP:conf/mobisys/2014", which doesn't exist
A bad cross reference---entry "DBLP:conf/icassp/JiaLLK06"
refers to entry "DBLP:conf/icassp/2006", which doesn't exist
A bad cross reference---entry "DBLP:conf/uss/BackesDGPS10"
refers to entry "DBLP:conf/uss/2010", which doesn't exist
A bad cross reference---entry "DBLP:conf/mobicom/HarterHSWW99"
refers to entry "DBLP:conf/mobicom/1999", which doesn't exist
A bad cross reference---entry "DBLP:conf/sensys/MarotiVDKNLBM05"
refers to entry "DBLP:conf/sensys/2005", which doesn't exist
A bad cross reference---entry "DBLP:conf/uss/SongWT01"
refers to entry "DBLP:conf/uss/2001", which doesn't exist
Warning--I didn't find a database entry for "***"
Warning--I didn't find a database entry for "DBLP:conf/mobisys/2014"
Warning--I didn't find a database entry for "DBLP:conf/icassp/2006"
Warning--I didn't find a database entry for "DBLP:conf/mobihoc/2009"
Warning--I didn't find a database entry for "DBLP:conf/mobihoc/2012"
Warning--I didn't find a database entry for "DBLP:conf/mobisys/2012"
Warning--I didn't find a database entry for "DBLP:conf/mobisys/2011"
Warning--I didn't find a database entry for "DBLP:conf/ccs/2010"
Warning--I didn't find a database entry for "DBLP:conf/ccs/2009"
Warning--I didn't find a database entry for "DBLP:conf/sensys/2006"
Warning--I didn't find a database entry for "DBLP:conf/sensys/2005"
Warning--I didn't find a database entry for "DBLP:conf/mobicom/1999"
Warning--I didn't find a database entry for "DBLP:conf/sensys/2007"
Warning--I didn't find a database entry for "DBLP:conf/sp/2004"
Warning--I didn't find a database entry for "DBLP:conf/uss/2001"
Warning--I didn't find a database entry for "DBLP:conf/sensys/2011"
Warning--I didn't find a database entry for "DBLP:conf/ccs/2006usa"
Warning--I didn't find a database entry for "DBLP:conf/uss/2010"
Warning--I didn't find a database entry for "DBLP:conf/ccs/2011"
Warning--I didn't find a database entry for "DBLP:conf/ccs/2005"
Warning--I didn't find a database entry for "DBLP:conf/mobicom/2011"
Warning--I didn't find a database entry for "DBLP:conf/mobisys/2013"
-- IEEEtran.bst version 1.13 (2008/09/30) by Michael Shell.
-- http://www.michaelshell.org/tex/ieeetran/bibtex/
-- See the "IEEEtran_bst_HOWTO.pdf" manual for usage information.

Done.
You've used 35 entries,
            4039 wiz_defined-function locations,
            1055 strings with 15046 characters,
and the built_in function-call counts, 28637 in all, are:
= -- 2172
> -- 715
< -- 235
+ -- 399
- -- 123
* -- 1335
:= -- 4036
add.period$ -- 72
call.type$ -- 35
change.case$ -- 37
chr.to.int$ -- 579
cite$ -- 35
duplicate$ -- 2031
empty$ -- 2545
format.name$ -- 153
if$ -- 6785
int.to.chr$ -- 0
int.to.str$ -- 35
missing$ -- 367
newline$ -- 130
num.names$ -- 35
pop$ -- 927
preamble$ -- 1
purify$ -- 0
quote$ -- 2
skip$ -- 2261
stack$ -- 0
substring$ -- 1384
swap$ -- 1611
text.length$ -- 42
text.prefix$ -- 0
top$ -- 5
type$ -- 35
warning$ -- 0
while$ -- 130
width$ -- 37
write$ -- 348
(There were 24 error messages)
