\relax 
\citation{german}
\citation{tempest2}
\citation{vaneck}
\citation{Davis2014VisualMic}
\citation{DBLP:conf/mobihoc/NordstromABR09}
\citation{DBLP:conf/mobihoc/MengIQN12}
\citation{DBLP:conf/mobisys/MiluzzoVBC12}
\citation{DBLP:conf/mobisys/QinBCN11}
\citation{DBLP:conf/mobihoc/SinghNCT12}
\citation{DBLP:conf/ccs/EnckOM09}
\citation{DBLP:conf/ccs/BarreraKOS10}
\citation{malwareonthemove}
\citation{DBLP:journals/pervasive/DagonMS04}
\citation{DBLP:conf/ccs/ZhuangZT05}
\citation{DBLP:conf/ccs/BergerWY06}
\citation{DBLP:conf/sp/AsonovA04}
\citation{DBLP:conf/ccs/MarquardtVCT11}
\@writefile{tdo}{\contentsline {todo}{\color@box {}{orange}{\leavevmode {\color  {orange}o}}\ Edit abstract}{\thepage }}
\pgfsyspdfmark {pgfid1}{11386879}{35479515}
\@writefile{toc}{\contentsline {section}{\numberline {1}Introduction}{\thepage }}
\newlabel{Introduction}{{1}{\thepage }}
\@writefile{tdo}{\contentsline {todo}{\color@box {}{orange}{\leavevmode {\color  {orange}o}}\ Edit introduction}{\thepage }}
\pgfsyspdfmark {pgfid2}{11386879}{19621793}
\citation{iphone5}
\citation{DBLP:conf/sensys/PengSZLT07}
\citation{DBLP:conf/sensys/QiuCMM11}
\citation{DBLP:conf/sensys/GirodLTE06a}
\citation{DBLP:conf/mobicom/YangSCVLCCGM11}
\citation{DBLP:conf/mobisys/WangYLCGM13}
\citation{DBLP:conf/sp/AsonovA04}
\@writefile{toc}{\contentsline {section}{\numberline {2}Overview}{\thepage }}
\newlabel{Overview}{{2}{\thepage }}
\@writefile{toc}{\contentsline {subsection}{\numberline {2.1}Hardware Support}{\thepage }}
\newlabel{Hardware Support}{{2.1}{\thepage }}
\@writefile{toc}{\contentsline {subsection}{\numberline {2.2}Theoretical Feasibility}{\thepage }}
\@writefile{toc}{\contentsline {subsubsection}{\numberline {2.2.1}Inevitable Error}{\thepage }}
\@writefile{toc}{\contentsline {subsubsection}{\numberline {2.2.2}Keystroke Distinguish}{\thepage }}
\newlabel{Keystroke}{{2.2.2}{\thepage }}
\@writefile{toc}{\contentsline {subsection}{\numberline {2.3}Our Attack}{\thepage }}
\newlabel{Our Attack}{{2.3}{\thepage }}
\@writefile{toc}{\contentsline {subsubsection}{\numberline {2.3.1}Attack Scenario}{\thepage }}
\@writefile{toc}{\contentsline {subsubsection}{\numberline {2.3.2}Attack Work flow}{\thepage }}
\citation{DBLP:conf/ccs/ZhuangZT05}
\citation{DBLP:conf/sp/AsonovA04}
\@writefile{lof}{\contentsline {figure}{\numberline {1}{\ignorespaces Attack overview. Context-free attacks to recover random contexts using keyboard acoustic emanations.}}{\thepage }}
\newlabel{overview}{{1}{\thepage }}
\@writefile{lof}{\contentsline {figure}{\numberline {2}{\ignorespaces For a pair of microphones, the candidate set of typed key is a half hyperbola belt}}{\thepage }}
\newlabel{fig:onephone}{{2}{\thepage }}
\@writefile{lof}{\contentsline {figure}{\numberline {3}{\ignorespaces With more pairs of microphones, the candidate set of typed key can be narrowed.}}{\thepage }}
\newlabel{fig:twophones}{{3}{\thepage }}
\@writefile{tdo}{\contentsline {todo}{\color@box {}{orange}{\leavevmode {\color  {orange}o}}\ Edit the keyboard reconstruction, and keystroke recovery item. Yin: the following is revised slightly.}{\thepage }}
\pgfsyspdfmark {pgfid3}{11386879}{13745221}
\@writefile{toc}{\contentsline {section}{\numberline {3}Technical Details}{\thepage }}
\newlabel{Technical Details}{{3}{\thepage }}
\@writefile{toc}{\contentsline {subsection}{\numberline {3.1}Pre-processing}{\thepage }}
\citation{***}
\citation{DBLP:conf/sensys/PengSZLT07}
\citation{DBLP:conf/mobisys/ZhangCCM12}
\citation{DBLP:conf/sensys/QiuCMM11}
\@writefile{lof}{\contentsline {figure}{\numberline {4}{\ignorespaces Example of a keystroke acoustic signal and its approximate energy signal.}}{\thepage }}
\newlabel{fig:signal}{{4}{\thepage }}
\newlabel{e1}{{3}{\thepage }}
\@writefile{toc}{\contentsline {subsection}{\numberline {3.2}TDoA Estimation}{\thepage }}
\newlabel{tdoa_estimation}{{3.2}{\thepage }}
\@writefile{lot}{\contentsline {table}{\numberline {1}{\ignorespaces Summary of symbols}}{\thepage }}
\newlabel{symbols}{{1}{\thepage }}
\@writefile{lof}{\contentsline {figure}{\numberline {5}{\ignorespaces The result of cross-correlation and generalized cross-correlation of $a_1(t)$ and $a_2(t)$}}{\thepage }}
\newlabel{fig:cc-and-gcc}{{5}{\thepage }}
\@writefile{loa}{\contentsline {algorithm}{\numberline {1}{\ignorespaces Algorithm to find \emph  {Hit Peaks}}}{\thepage }}
\newlabel{algo:findmax}{{1}{\thepage }}
\citation{knapp1976generalized}
\citation{knapp1976generalized}
\citation{knapp1976generalized}
\citation{wang1997voice}
\citation{rui2004time}
\citation{DBLP:conf/mobisys/SurWZ14}
\citation{sivrikaya2004time}
\citation{DBLP:conf/icassp/JiaLLK06}
\newlabel{eq:cc}{{6}{\thepage }}
\@writefile{tdo}{\contentsline {todo}{\color@box {}{orange}{\leavevmode {\color  {orange}o}}\ add some sentences to describe why GCC works(the above line)}{\thepage }}
\pgfsyspdfmark {pgfid4}{11386879}{16090609}
\@writefile{lof}{\contentsline {figure}{\numberline {6}{\ignorespaces The sampling offset between different microphone pairs}}{\thepage }}
\newlabel{fig:sync}{{6}{\thepage }}
\newlabel{fig:distance_deviation_dis}{{3.2}{\thepage }}
\newlabel{fig:apple}{{7(a)}{\thepage }}
\newlabel{sub@fig:apple}{{(a)}{\thepage }}
\newlabel{fig:filco}{{7(b)}{\thepage }}
\newlabel{sub@fig:filco}{{(b)}{\thepage }}
\@writefile{lof}{\contentsline {figure}{\numberline {7}{\ignorespaces Distance deviation vs. distance}}{\thepage }}
\@writefile{lof}{\contentsline {subfigure}{\numberline{(a)}{\ignorespaces {Apple keyboard}}}{\thepage }}
\@writefile{lof}{\contentsline {subfigure}{\numberline{(b)}{\ignorespaces {Filco keyboard}}}{\thepage }}
\@writefile{tdo}{\contentsline {todo}{\color@box {}{orange}{\leavevmode {\color  {orange}o}}\ the following part should be rewritten.}{\thepage }}
\pgfsyspdfmark {pgfid5}{28688383}{22143986}
\citation{DBLP:conf/sensys/PengSZLT07}
\citation{DBLP:conf/sensys/QiuCMM11}
\citation{DBLP:conf/mobisys/ZhangCCM12}
\newlabel{fig:distance_deviation_np}{{3.2}{\thepage }}
\newlabel{fig:apple_np}{{8(a)}{\thepage }}
\newlabel{sub@fig:apple_np}{{(a)}{\thepage }}
\newlabel{fig:filco_np}{{8(b)}{\thepage }}
\newlabel{sub@fig:filco_np}{{(b)}{\thepage }}
\@writefile{lof}{\contentsline {figure}{\numberline {8}{\ignorespaces Distance deviation vs. $N_p$}}{\thepage }}
\@writefile{lof}{\contentsline {subfigure}{\numberline{(a)}{\ignorespaces {Apple keyboard}}}{\thepage }}
\@writefile{lof}{\contentsline {subfigure}{\numberline{(b)}{\ignorespaces {Filco keyboard}}}{\thepage }}
\@writefile{lof}{\contentsline {figure}{\numberline {9}{\ignorespaces The heatmap of the intersection of candidate areas and the illustration of maximum intersections }}{\thepage }}
\newlabel{fig:heatmap}{{9}{\thepage }}
\@writefile{toc}{\contentsline {subsection}{\numberline {3.3}Keystroke pinpoint}{\thepage }}
\@writefile{toc}{\contentsline {subsection}{\numberline {3.4}Keyboard Reconstruction and Keystroke Recovery}{\thepage }}
\@writefile{tdo}{\contentsline {todo}{\color@box {}{orange}{\leavevmode {\color  {orange}o}}\ Edit second item}{\thepage }}
\pgfsyspdfmark {pgfid6}{11386879}{8089695}
\newlabel{eq:obj}{{13}{\thepage }}
\citation{DBLP:conf/ccs/ZhuangZT05}
\citation{DBLP:conf/ccs/BergerWY06}
\citation{DBLP:conf/ccs/MarquardtVCT11}
\citation{DBLP:conf/ccs/MarquardtVCT11}
\@writefile{toc}{\contentsline {section}{\numberline {4}Discussion}{\thepage }}
\newlabel{Discussion}{{4}{\thepage }}
\@writefile{loa}{\contentsline {algorithm}{\numberline {2}{\ignorespaces Algorithm for keyboard reconstruction}}{\thepage }}
\newlabel{algo:keyboard_recontruction}{{2}{\thepage }}
\@writefile{lof}{\contentsline {figure}{\numberline {10}{\ignorespaces The candidate set of key position is well narrowed with more smartphones (i.e., microphones).}}{\thepage }}
\newlabel{fig:twoThreeFour}{{10}{\thepage }}
\@writefile{toc}{\contentsline {subsection}{\numberline {4.1}How many smartphones should be used?}{\thepage }}
\newlabel{How many smartphones should be used?}{{4.1}{\thepage }}
\@writefile{toc}{\contentsline {subsection}{\numberline {4.2}What if the layout of keyboard is unknown?}{\thepage }}
\@writefile{toc}{\contentsline {section}{\numberline {5}Evaluation}{\thepage }}
\newlabel{Evaluation}{{5}{\thepage }}
\citation{DBLP:conf/ccs/MarquardtVCT11}
\citation{DBLP:conf/ccs/ZhuangZT05}
\@writefile{lof}{\contentsline {figure}{\numberline {11}{\ignorespaces Detection accuracy for each letter involved in the text.}}{\thepage }}
\newlabel{fig:character}{{11}{\thepage }}
\@writefile{lof}{\contentsline {figure}{\numberline {12}{\ignorespaces Detection accuracy for special characters in a natural way to type.}}{\thepage }}
\newlabel{fig:special}{{12}{\thepage }}
\@writefile{toc}{\contentsline {subsection}{\numberline {5.1}Implementation}{\thepage }}
\newlabel{Implementation}{{5.1}{\thepage }}
\@writefile{toc}{\contentsline {subsection}{\numberline {5.2}Detection Accuracy}{\thepage }}
\newlabel{Detection Accuracy}{{5.2}{\thepage }}
\@writefile{toc}{\contentsline {subsubsection}{\numberline {5.2.1}Spatial Correlations}{\thepage }}
\newlabel{Spatial Correlations}{{5.2.1}{\thepage }}
\@writefile{tdo}{\contentsline {todo}{\color@box {}{orange}{\leavevmode {\color  {orange}o}}\ This subsection should be revised}{\thepage }}
\@writefile{lof}{\contentsline {figure}{\numberline {13}{\ignorespaces Character ranking according to detection accuracy. }}{\thepage }}
\newlabel{fig:ranking}{{13}{\thepage }}
\@writefile{lof}{\contentsline {figure}{\numberline {14}{\ignorespaces Distribution of interval between two consecutive faulty recognitions.}}{\thepage }}
\newlabel{fig:interval}{{14}{\thepage }}
\pgfsyspdfmark {pgfid7}{28688383}{23226362}
\@writefile{toc}{\contentsline {subsubsection}{\numberline {5.2.2}Misrecognition Interval}{\thepage }}
\newlabel{Misrecognition Interval}{{5.2.2}{\thepage }}
\citation{DBLP:conf/ccs/ZhuangZT05}
\citation{DBLP:conf/sp/AsonovA04}
\@writefile{lof}{\contentsline {figure}{\numberline {15}{\ignorespaces Detection accuracy in three situations: Library, Office, Meeting room.}}{\thepage }}
\newlabel{fig:hello}{{15}{\thepage }}
\@writefile{toc}{\contentsline {subsection}{\numberline {5.3}Robustness to Ambient Noise}{\thepage }}
\newlabel{Robustness to Ambient Noise}{{5.3}{\thepage }}
\@writefile{tdo}{\contentsline {todo}{\color@box {}{orange}{\leavevmode {\color  {orange}o}}\ Is it robust to noise?}{\thepage }}
\pgfsyspdfmark {pgfid8}{11386879}{26618920}
\@writefile{toc}{\contentsline {subsection}{\numberline {5.4}Keyboard Reconstruction}{\thepage }}
\newlabel{Keyboard Reconstruction}{{5.4}{\thepage }}
\@writefile{toc}{\contentsline {subsubsection}{\numberline {5.4.1}Efficiency of Keyboard Reconstruction}{\thepage }}
\newlabel{Efficiency of Keyboard Reconstruction}{{5.4.1}{\thepage }}
\@writefile{lof}{\contentsline {figure}{\numberline {16}{\ignorespaces Efficiency of keyboard reconstruction using different number of keystrokes.}}{\thepage }}
\newlabel{fig:times}{{16}{\thepage }}
\@writefile{lof}{\contentsline {figure}{\numberline {18}{\ignorespaces The heatmaps generated for keyboard reconstruction when the smartphone on position 5 rotates. (a) rotate $45^\circ $ clockwise; (b) rotate $90^\circ $ clockwise.}}{\thepage }}
\newlabel{fig:rotate}{{18}{\thepage }}
\citation{DBLP:conf/uss/BackesDGPS10}
\citation{DBLP:conf/sp/AsonovA04}
\citation{DBLP:conf/ccs/ZhuangZT05}
\citation{DBLP:conf/ccs/BergerWY06}
\citation{DBLP:conf/ccs/MarquardtVCT11}
\citation{DBLP:conf/mobicom/HarterHSWW99}
\citation{DBLP:conf/sensys/MarotiVDKNLBM05}
\citation{DBLP:conf/sensys/GirodLTE06a}
\citation{DBLP:conf/uss/SongWT01}
\citation{DBLP:journals/tmc/HazasH06}
\citation{DBLP:conf/mobicom/HarterHSWW99}
\citation{DBLP:conf/sensys/MarotiVDKNLBM05}
\citation{DBLP:conf/sensys/PengSZLT07}
\citation{DBLP:conf/sensys/QiuCMM11}
\citation{DBLP:conf/mobisys/ZhangCCM12}
\@writefile{lof}{\contentsline {figure}{\numberline {17}{\ignorespaces The heatmaps generated for keyboard reconstruction in different combinations of smartphone positions. }}{\thepage }}
\newlabel{fig:phonePosition}{{17}{\thepage }}
\@writefile{toc}{\contentsline {subsubsection}{\numberline {5.4.2}Relative Position of Smartphones}{\thepage }}
\newlabel{Relative Location of Smartphones}{{5.4.2}{\thepage }}
\@writefile{tdo}{\contentsline {todo}{\color@box {}{orange}{\leavevmode {\color  {orange}o}}\ In the results, when the phones are positioned in $1-3-5$, almost all the \emph  {maximum intersections} belong to ``center locations'', which greatly enhance the accuracy of keyboard reconstruction. In contrast, when the phones are positioned in $1-2-3$ and $2-3-4$, more than a half of \emph  {maximum intersections} are ``border locations'', which degrade the estimation accuracy.}{\thepage }}
\pgfsyspdfmark {pgfid9}{11386879}{15050346}
\@writefile{toc}{\contentsline {subsubsection}{\numberline {5.4.3}Relative Angle of Smartphones}{\thepage }}
\newlabel{Relative Angle of Smartphones}{{5.4.3}{\thepage }}
\@writefile{tdo}{\contentsline {todo}{\color@box {}{orange}{\leavevmode {\color  {orange}o}}\ As we can see, there are nine ``center locations'' and only one ``border locations'' when we rotate the phone $90^\circ $ clockwise. If the rotation is $45^\circ $, more ``border locations'' are generated.}{\thepage }}
\pgfsyspdfmark {pgfid10}{28688383}{36240633}
\@writefile{toc}{\contentsline {section}{\numberline {6}Related Work}{\thepage }}
\newlabel{Related Work}{{6}{\thepage }}
\@writefile{toc}{\contentsline {subsection}{\numberline {6.1}Keyboard Emanation}{\thepage }}
\newlabel{Keyboard Emanation}{{6.1}{\thepage }}
\@writefile{toc}{\contentsline {subsection}{\numberline {6.2}Phone Localization}{\thepage }}
\newlabel{Phone localization}{{6.2}{\thepage }}
\bibdata{ccs14}
\bibcite{german}{1}
\bibcite{tempest2}{2}
\bibcite{vaneck}{3}
\bibcite{Davis2014VisualMic}{4}
\bibcite{DBLP:conf/mobihoc/NordstromABR09}{5}
\bibcite{DBLP:conf/mobihoc/MengIQN12}{6}
\bibcite{DBLP:conf/mobisys/MiluzzoVBC12}{7}
\bibcite{DBLP:conf/mobisys/QinBCN11}{8}
\bibcite{DBLP:conf/mobihoc/SinghNCT12}{9}
\bibcite{DBLP:conf/ccs/EnckOM09}{10}
\bibcite{DBLP:conf/ccs/BarreraKOS10}{11}
\bibcite{malwareonthemove}{12}
\bibcite{DBLP:journals/pervasive/DagonMS04}{13}
\bibcite{DBLP:conf/ccs/ZhuangZT05}{14}
\bibcite{DBLP:conf/ccs/BergerWY06}{15}
\bibcite{DBLP:conf/sp/AsonovA04}{16}
\bibcite{DBLP:conf/ccs/MarquardtVCT11}{17}
\bibcite{iphone5}{18}
\bibcite{DBLP:conf/sensys/PengSZLT07}{19}
\bibcite{DBLP:conf/sensys/QiuCMM11}{20}
\bibcite{DBLP:conf/sensys/GirodLTE06a}{21}
\bibcite{DBLP:conf/mobicom/YangSCVLCCGM11}{22}
\@writefile{toc}{\contentsline {section}{\numberline {7}Conclusion}{\thepage }}
\newlabel{Conclusion}{{7}{\thepage }}
\@writefile{toc}{\contentsline {section}{\numberline {8}Acknowledgements}{\thepage }}
\@writefile{toc}{\contentsline {section}{\numberline {9}References}{\thepage }}
\bibcite{DBLP:conf/mobisys/WangYLCGM13}{23}
\bibcite{DBLP:conf/mobisys/ZhangCCM12}{24}
\bibcite{knapp1976generalized}{25}
\bibcite{wang1997voice}{26}
\bibcite{rui2004time}{27}
\bibcite{DBLP:conf/mobisys/SurWZ14}{28}
\bibcite{sivrikaya2004time}{29}
\bibcite{DBLP:conf/icassp/JiaLLK06}{30}
\bibcite{DBLP:conf/uss/BackesDGPS10}{31}
\bibcite{DBLP:conf/mobicom/HarterHSWW99}{32}
\bibcite{DBLP:conf/sensys/MarotiVDKNLBM05}{33}
\bibcite{DBLP:conf/uss/SongWT01}{34}
\bibcite{DBLP:journals/tmc/HazasH06}{35}
\bibstyle{IEEEtran}
